{
  "client": { 
    "client_id":"596784899814-v24qfbrko72hr0246usp6oeep08ofgc7.apps.googleusercontent.com",
    "project_id":"swarajya-bhramanti",
    "auth_uri":"https://accounts.google.com/o/oauth2/auth",
    "token_uri":"https://oauth2.googleapis.com/token",
    "auth_provider_x509_cert_url":"https://www.googleapis.com/oauth2/v1/certs",
    "client_secret":"AUErh_ltobkPQyxEhAdcGiMt",
    "redirect_uris":["http://localhost:8000/login/google"],
    "javascript_origins":["http://localhost:8000"]
  }
}